%YAML 1.1
%TAG !u! tag:unity3d.com,2011:
--- !u!114 &11400000
MonoBehaviour:
  m_ObjectHideFlags: 0
  m_CorrespondingSourceObject: {fileID: 0}
  m_PrefabInstance: {fileID: 0}
  m_PrefabAsset: {fileID: 0}
  m_GameObject: {fileID: 0}
  m_Enabled: 1
  m_EditorHideFlags: 0
  m_Script: {fileID: 11500000, guid: 8a8769e81b857dd4c8373ab5c6ab301f, type: 3}
  m_Name: SPG
  m_EditorClassIdentifier: 
  tankName: SPG
  description: "<style=\"title><align=\"left\"><size=100%><b>SPG</b></style>\n<align=\"left\"><color=\"white\"><size=80%>Self-propelled
    artillery (also called locomotive artillery) is artillery equipped with its own
    propulsion system to move towards its firing position. Within the terminology
    are the self-propelled gun, self-propelled howitzer, self-propelled mortar, and
    rocket artillery. They are high mobility vehicles, usually based on continuous
    tracks carrying either a large field gun, howitzer, mortar, or some form of rocket/missile
    launcher. They are usually used for long-range indirect bombardment support on
    the battlefield.\r\n\r\nIn the past, self-propelled artillery has included direct-fire
    vehicles, such as assault guns and tank destroyers. These have been heavily armoured
    vehicles, the former providing close fire-support for infantry and the latter
    acting as specialized anti-tank vehicles.\r\n\r\nModern self-propelled artillery
    vehicles may superficially resemble tanks, but they are generally lightly armoured,
    too lightly to survive in direct-fire combat. However, they protect their crews
    against shrapnel and small arms and are therefore usually included as armoured
    fighting vehicles. Many are equipped with machine guns for defense against enemy
    infantry.\r\n\r\nThe key advantage of self-propelled over towed artillery is
    that it can be brought into action much faster. Before the towed artillery can
    be used, it has to stop, unlimber and set up the guns. To move position, the
    guns must be limbered up again and brought\u2014usually towed\u2014to the new
    location. By comparison, self-propelled artillery can stop at a chosen location
    and begin firing almost immediately, then quickly move on to a new position.
    This shoot-and-scoot ability is very useful in a mobile conflict and particularly
    on the advance.\r\n\r\nConversely, towed artillery was and remains cheaper to
    build and maintain. It is also lighter and can be taken to places that self-propelled
    guns cannot reach. Since the Vietnam War, heavy transport helicopters have also
    been used for rapid artillery deployment. So, despite the advantages of the self-propelled
    artillery, towed guns remain in the arsenals of many modern armies.\n\nInformation
    acquired from Wikipedia\nhttps://en.wikipedia.org/wiki/Self-propelled_artillery"
